{
	"owner": "154983",
	"lastUpdatedBy": "154983",
	"lastRevision": 358219262,
	"team": null,
	"id": "b5631f8e-94eb-47a8-e328-9ee66952d8f3",
	"name": "QBanks",
	"description": "",
	"folders_order": [],
	"order": [
		"450690d8-5fcd-5fef-ad0d-03fa41082288",
		"7860039b-0fb8-120e-9a57-205966b4623e",
		"f588c7f0-ccac-30e9-f26d-064a327e27df",
		"4257586e-2584-4f0c-497a-042ba0b17333",
		"08ad2a84-5f1b-4b4c-3cd2-a2f387255cba",
		"bbd799d2-b7e9-e66f-904a-7b317cc03c64",
		"cca25c0a-8098-eaa2-40fc-14d5436725fd",
		"d9ec6da6-bd48-231a-653f-c4ba7fc64133",
		"c46bb0b6-e83d-a8d3-7c8e-87769af88bd4",
		"b5f7bb61-3bbd-8cc3-de39-3937dcc5ca63",
		"31b8d62b-d627-e9ad-f140-69c9acbd0450",
		"bd6e8eaf-5d4f-d933-5f95-0bc793ced9c1",
		"f4aade88-11bf-174b-891c-987045d83cc0",
		"3640008c-9315-f12c-d15e-ecbda0cff413",
		"0cc5762c-d26b-cc7c-ff2b-9ebb9c8dfe41",
		"cb9b033a-76f0-bc03-bc02-8895a1bfdfa5",
		"8d6b22ca-55b4-14ea-1020-b3816bddf858",
		"5c644e1f-24bd-8cb4-b773-6c1f21cade8b",
		"cdc003b9-6819-91c4-56db-5c34ee3d2593",
		"9a321516-3de0-dc0d-2c9b-c92451bd048c",
		"75aa0f5c-e1e7-3f7b-2700-d37771dc4eb5",
		"eeb4f158-057b-3f40-af02-d042b881c6b9",
		"3f427b2a-7973-c34c-d411-fb0847c78692",
		"cb2c59be-bb89-238e-4e9c-78d0df00f33c",
		"a3d8a732-b08f-2571-2d21-747bbb442f43",
		"937ed424-280b-7117-ece6-cdf05e4c8550",
		"7628ea09-265f-b735-4154-3c7fca8b1a5e",
		"3e935acf-b029-0099-4835-84f0d2fdfb48"
	],
	"requests": [
		{
			"folder": null,
			"id": "08ad2a84-5f1b-4b4c-3cd2-a2f387255cba",
			"name": "User Reset Password",
			"dataMode": "params",
			"data": [],
			"rawModeData": null,
			"descriptionFormat": "html",
			"description": "",
			"headers": "",
			"method": "GET",
			"pathVariables": {},
			"url": "http://localhost:8000/api/user/reset_password?token=$2y$10$RIyjyPX6cMwFDUJaRjAueOaUj8LD5Jr1IWr71JqOKzdxE6I8bVpCa&new_password=admin1234&new_password_confirm=admin1234",
			"preRequestScript": "",
			"tests": "",
			"currentHelper": "normal",
			"helperAttributes": {},
			"queryParams": null,
			"headerData": null,
			"pathVariableData": null,
			"collectionId": "b5631f8e-94eb-47a8-e328-9ee66952d8f3"
		},
		{
			"folder": null,
			"id": "0cc5762c-d26b-cc7c-ff2b-9ebb9c8dfe41",
			"name": "Bank Check Transaction [Mandiri]",
			"dataMode": "params",
			"data": [],
			"rawModeData": null,
			"descriptionFormat": "html",
			"description": "",
			"headers": "token: $2y$10$f2HCdgi8Kq04MVhYsXYysuA8v/IrhCz30NgTgFaNLLsVXsBQUNzxa\n",
			"method": "GET",
			"pathVariables": {},
			"url": "http://localhost:8000/api/bank/transaction/check",
			"preRequestScript": "",
			"tests": "",
			"currentHelper": "normal",
			"helperAttributes": {},
			"queryParams": null,
			"headerData": null,
			"pathVariableData": null,
			"collectionId": "b5631f8e-94eb-47a8-e328-9ee66952d8f3"
		},
		{
			"folder": null,
			"id": "31b8d62b-d627-e9ad-f140-69c9acbd0450",
			"name": "Bank Balance [BNI]",
			"dataMode": "params",
			"data": [],
			"rawModeData": null,
			"descriptionFormat": "html",
			"description": "",
			"headers": "token: $2y$10$BbE0M8GPEl1Qcf72WysoXOKbJ2rBJJnFmV6uVrhdpitc/aLXnq3re\n",
			"method": "GET",
			"pathVariables": {},
			"url": "http://localhost:8000/api/bank/balance?secret_key=ce118a8a-6910-43bc-85a5-f27820a24c09",
			"preRequestScript": "",
			"tests": "",
			"currentHelper": "normal",
			"helperAttributes": {},
			"queryParams": null,
			"headerData": null,
			"pathVariableData": null,
			"collectionId": "b5631f8e-94eb-47a8-e328-9ee66952d8f3"
		},
		{
			"folder": null,
			"id": "3640008c-9315-f12c-d15e-ecbda0cff413",
			"name": "Bank Check History [Mandiri]",
			"dataMode": "params",
			"data": [],
			"rawModeData": null,
			"descriptionFormat": "html",
			"description": "",
			"headers": "token: $2y$10$LoyxG1Agja2uAd0QlEWMXu5N1VpBVlsQf/tl.pMdU6.zRG/XtM8Fa\n",
			"method": "GET",
			"pathVariables": {},
			"url": "http://localhost:8000/api/bank/transaction/history?secret_key=bf6c9e3d-aa44-4b56-bd16-4162b3d93494&from=2016/04/01&to=2016/04/30&sort_type=date&order_by=desc",
			"preRequestScript": "",
			"tests": "",
			"currentHelper": "normal",
			"helperAttributes": {},
			"queryParams": null,
			"headerData": null,
			"pathVariableData": null,
			"collectionId": "b5631f8e-94eb-47a8-e328-9ee66952d8f3"
		},
		{
			"folder": null,
			"id": "3e935acf-b029-0099-4835-84f0d2fdfb48",
			"name": "Search Cashflow History",
			"dataMode": "urlencoded",
			"data": [
				{
					"key": "secret_key",
					"value": "825dede7-9ada-4337-a78d-bd0d43bf8a2e",
					"type": "text",
					"enabled": true
				},
				{
					"key": "cashflow_id",
					"value": "12",
					"type": "text",
					"enabled": true
				},
				{
					"key": "status",
					"value": "read",
					"type": "text",
					"enabled": true
				}
			],
			"rawModeData": null,
			"descriptionFormat": null,
			"description": "",
			"headers": "token: $2y$10$8aEfNd8Uz3SyIJhFNGj5geVdWjgudws3z50DzcINGJP8AHETg9JAa\n",
			"method": "GET",
			"pathVariables": {},
			"url": "http://localhost:8000/api/bank/cashflow/search?bank_account_id=9&from=2016/06/18&to=2016/06/18",
			"preRequestScript": "",
			"tests": "",
			"currentHelper": "normal",
			"helperAttributes": {},
			"queryParams": null,
			"headerData": null,
			"pathVariableData": null,
			"collectionId": "b5631f8e-94eb-47a8-e328-9ee66952d8f3"
		},
		{
			"folder": null,
			"id": "3f427b2a-7973-c34c-d411-fb0847c78692",
			"name": "Get Bank Balance History",
			"dataMode": "params",
			"data": [],
			"rawModeData": null,
			"descriptionFormat": "html",
			"description": "",
			"headers": "token: $2y$10$1p460BLSlm.LmidKjpouPOz3iqHM50T3i8yWAVZ2NKSwAP84Ut9By\n",
			"method": "GET",
			"pathVariables": {},
			"url": "http://localhost:8000/api/bank/balance/history?bank_account_id=6",
			"preRequestScript": "",
			"tests": "",
			"currentHelper": "normal",
			"helperAttributes": {},
			"queryParams": null,
			"headerData": null,
			"pathVariableData": null,
			"collectionId": "b5631f8e-94eb-47a8-e328-9ee66952d8f3"
		},
		{
			"folder": null,
			"id": "4257586e-2584-4f0c-497a-042ba0b17333",
			"name": "User Forgot Password",
			"dataMode": "urlencoded",
			"data": [
				{
					"key": "email",
					"value": "cjzeven@gmail.com",
					"type": "text",
					"enabled": true
				}
			],
			"rawModeData": null,
			"descriptionFormat": "html",
			"description": "",
			"headers": "",
			"method": "POST",
			"pathVariables": {},
			"url": "http://localhost:8000/api/user/forgot",
			"preRequestScript": "",
			"tests": "",
			"currentHelper": "normal",
			"helperAttributes": {},
			"queryParams": null,
			"headerData": null,
			"pathVariableData": null,
			"collectionId": "b5631f8e-94eb-47a8-e328-9ee66952d8f3"
		},
		{
			"folder": null,
			"id": "450690d8-5fcd-5fef-ad0d-03fa41082288",
			"name": "User Register",
			"dataMode": "urlencoded",
			"data": [
				{
					"key": "firstname",
					"value": "Damar",
					"type": "text",
					"enabled": true
				},
				{
					"key": "lastname",
					"value": "Riyadi",
					"type": "text",
					"enabled": true
				},
				{
					"key": "username",
					"value": "admin1234",
					"type": "text",
					"enabled": true
				},
				{
					"key": "email",
					"value": "adentya.ms@gmail.com",
					"type": "text",
					"enabled": true
				},
				{
					"key": "password",
					"value": "admin1234",
					"type": "text",
					"enabled": true
				},
				{
					"key": "password_confirm",
					"value": "admin1234",
					"type": "text",
					"enabled": true
				}
			],
			"rawModeData": null,
			"descriptionFormat": null,
			"description": "",
			"headers": "",
			"method": "POST",
			"pathVariables": {},
			"url": "http://localhost:8000/api/user/register",
			"preRequestScript": "",
			"tests": "",
			"currentHelper": "normal",
			"helperAttributes": {},
			"queryParams": null,
			"headerData": null,
			"pathVariableData": null,
			"collectionId": "b5631f8e-94eb-47a8-e328-9ee66952d8f3"
		},
		{
			"folder": null,
			"id": "5c644e1f-24bd-8cb4-b773-6c1f21cade8b",
			"name": "Change Cashflow Status",
			"dataMode": "urlencoded",
			"data": [
				{
					"key": "secret_key",
					"value": "825dede7-9ada-4337-a78d-bd0d43bf8a2e",
					"type": "text",
					"enabled": true
				},
				{
					"key": "cashflow_id",
					"value": "12",
					"type": "text",
					"enabled": true
				},
				{
					"key": "status",
					"value": "read",
					"type": "text",
					"enabled": true
				}
			],
			"rawModeData": null,
			"descriptionFormat": "html",
			"description": "",
			"headers": "token: $2y$10$b3wCor4vd9ik1X6Xl0A.auPdMjeWtSzidaC7/bSBCyG0IRwjS/Uyu\n",
			"method": "POST",
			"pathVariables": {},
			"url": "http://localhost:8000/api/bank/cashflow/status",
			"preRequestScript": "",
			"tests": "",
			"currentHelper": "normal",
			"helperAttributes": {},
			"queryParams": null,
			"headerData": null,
			"pathVariableData": null,
			"collectionId": "b5631f8e-94eb-47a8-e328-9ee66952d8f3"
		},
		{
			"folder": null,
			"id": "75aa0f5c-e1e7-3f7b-2700-d37771dc4eb5",
			"name": "Get Bank Balance Amount",
			"dataMode": "params",
			"data": [],
			"rawModeData": null,
			"descriptionFormat": "html",
			"description": "",
			"headers": "token: $2y$10$1xg4REL0EqnCFtP94ElJpuE5EmwJCaD669yOop0XXkECHoDxuukWy\n",
			"method": "GET",
			"pathVariables": {},
			"url": "http://localhost:8000/api/bank/balance/amount?secret_key=825dede7-9ada-4337-a78d-bd0d43bf8a2e&bank_account_id=4",
			"preRequestScript": "",
			"tests": "",
			"currentHelper": "normal",
			"helperAttributes": {},
			"queryParams": null,
			"headerData": null,
			"pathVariableData": null,
			"collectionId": "b5631f8e-94eb-47a8-e328-9ee66952d8f3"
		},
		{
			"folder": null,
			"id": "7628ea09-265f-b735-4154-3c7fca8b1a5e",
			"name": "Delete Bank Account",
			"dataMode": "params",
			"data": [],
			"rawModeData": null,
			"descriptionFormat": "html",
			"description": "",
			"headers": "token: $2y$10$E0heRPsYickNbB5vDhUgjezQYiF3goq.tN5VVyIy9WM5NcqzyZZOW\n",
			"method": "GET",
			"pathVariables": {},
			"url": "http://localhost:8000/api/bank/account/delete?bank_account_id=11",
			"preRequestScript": "",
			"tests": "",
			"currentHelper": "normal",
			"helperAttributes": {},
			"queryParams": null,
			"headerData": null,
			"pathVariableData": null,
			"collectionId": "b5631f8e-94eb-47a8-e328-9ee66952d8f3"
		},
		{
			"folder": null,
			"id": "7860039b-0fb8-120e-9a57-205966b4623e",
			"name": "User Login",
			"dataMode": "urlencoded",
			"data": [
				{
					"key": "username",
					"value": "cjzeven",
					"type": "text",
					"enabled": true
				},
				{
					"key": "password",
					"value": "admin1234",
					"type": "text",
					"enabled": true
				}
			],
			"rawModeData": null,
			"descriptionFormat": "html",
			"description": "",
			"headers": "",
			"method": "POST",
			"pathVariables": {},
			"url": "http://localhost:8000/api/user/login",
			"preRequestScript": "",
			"tests": "",
			"currentHelper": "normal",
			"helperAttributes": {},
			"queryParams": null,
			"headerData": null,
			"pathVariableData": null,
			"collectionId": "b5631f8e-94eb-47a8-e328-9ee66952d8f3"
		},
		{
			"folder": null,
			"id": "8d6b22ca-55b4-14ea-1020-b3816bddf858",
			"name": "Change Cashflow User Description",
			"dataMode": "urlencoded",
			"data": [
				{
					"key": "secret_key",
					"value": "825dede7-9ada-4337-a78d-bd0d43bf8a2e",
					"type": "text",
					"enabled": true
				},
				{
					"key": "cashflow_id",
					"value": "12",
					"type": "text",
					"enabled": true
				},
				{
					"key": "description",
					"value": "Hello world",
					"type": "text",
					"enabled": true
				}
			],
			"rawModeData": null,
			"descriptionFormat": "html",
			"description": "",
			"headers": "token: $2y$10$b3wCor4vd9ik1X6Xl0A.auPdMjeWtSzidaC7/bSBCyG0IRwjS/Uyu\n",
			"method": "POST",
			"pathVariables": {},
			"url": "http://localhost:8000/api/bank/cashflow/user_description",
			"preRequestScript": "",
			"tests": "",
			"currentHelper": "normal",
			"helperAttributes": {},
			"queryParams": null,
			"headerData": null,
			"pathVariableData": null,
			"collectionId": "b5631f8e-94eb-47a8-e328-9ee66952d8f3"
		},
		{
			"folder": null,
			"id": "937ed424-280b-7117-ece6-cdf05e4c8550",
			"name": "User Change Password",
			"dataMode": "params",
			"data": [],
			"rawModeData": null,
			"descriptionFormat": "html",
			"description": "",
			"headers": "token: $2y$10$wHIKcwxFGT1CzNI69Ln0QuSAa89rlkBQrv..osNqQeVJY7qWCstGS\n",
			"method": "POST",
			"pathVariables": {},
			"url": "http://localhost:8000/api/user/change_password?new_password=admin1234&new_password_confirm=admin1234&password=admin12345",
			"preRequestScript": "",
			"tests": "",
			"currentHelper": "normal",
			"helperAttributes": {},
			"queryParams": null,
			"headerData": null,
			"pathVariableData": null,
			"collectionId": "b5631f8e-94eb-47a8-e328-9ee66952d8f3"
		},
		{
			"folder": null,
			"id": "9a321516-3de0-dc0d-2c9b-c92451bd048c",
			"name": "Get Total History",
			"dataMode": "urlencoded",
			"data": [
				{
					"key": "secret_key",
					"value": "825dede7-9ada-4337-a78d-bd0d43bf8a2e",
					"type": "text",
					"enabled": true
				},
				{
					"key": "cashflow_id",
					"value": "12",
					"type": "text",
					"enabled": true
				},
				{
					"key": "status",
					"value": "read",
					"type": "text",
					"enabled": true
				}
			],
			"rawModeData": null,
			"descriptionFormat": "html",
			"description": "",
			"headers": "token: $2y$10$YEzkKSrR4grTSppPlQgUZuaw2.jry9ZMSCM5CiGrPz7f.zJabIHq.\n",
			"method": "GET",
			"pathVariables": {},
			"url": "http://localhost:8000/api/bank/transaction/history/total?bank_account_id=6",
			"preRequestScript": "",
			"tests": "",
			"currentHelper": "normal",
			"helperAttributes": {},
			"queryParams": null,
			"headerData": null,
			"pathVariableData": null,
			"collectionId": "b5631f8e-94eb-47a8-e328-9ee66952d8f3"
		},
		{
			"folder": null,
			"id": "a3d8a732-b08f-2571-2d21-747bbb442f43",
			"name": "Get All Banks",
			"dataMode": "urlencoded",
			"data": [
				{
					"key": "secret_key",
					"value": "825dede7-9ada-4337-a78d-bd0d43bf8a2e",
					"type": "text",
					"enabled": true
				},
				{
					"key": "cashflow_id",
					"value": "12",
					"type": "text",
					"enabled": true
				},
				{
					"key": "status",
					"value": "read",
					"type": "text",
					"enabled": true
				}
			],
			"rawModeData": null,
			"descriptionFormat": "html",
			"description": "",
			"headers": "token: $2y$10$k./2h2kwYa.SGn7FeDbDaetzdpJh8mzJNE0gNvqgCjem/BmLnRjJ2\n",
			"method": "GET",
			"pathVariables": {},
			"url": "http://localhost:8000/api/bank",
			"preRequestScript": "",
			"tests": "",
			"currentHelper": "normal",
			"helperAttributes": {},
			"queryParams": null,
			"headerData": null,
			"pathVariableData": null,
			"collectionId": "b5631f8e-94eb-47a8-e328-9ee66952d8f3"
		},
		{
			"folder": null,
			"id": "b5f7bb61-3bbd-8cc3-de39-3937dcc5ca63",
			"name": "Bank Check Transaction [BNI]",
			"dataMode": "params",
			"data": [],
			"rawModeData": null,
			"descriptionFormat": "html",
			"description": "",
			"headers": "token: $2y$10$f2HCdgi8Kq04MVhYsXYysuA8v/IrhCz30NgTgFaNLLsVXsBQUNzxa\n",
			"method": "GET",
			"pathVariables": {},
			"url": "http://localhost:8000/api/bank/transaction/check",
			"preRequestScript": "",
			"tests": "",
			"currentHelper": "normal",
			"helperAttributes": {},
			"queryParams": null,
			"headerData": null,
			"pathVariableData": null,
			"collectionId": "b5631f8e-94eb-47a8-e328-9ee66952d8f3"
		},
		{
			"folder": null,
			"id": "bbd799d2-b7e9-e66f-904a-7b317cc03c64",
			"name": "Bank Register Account",
			"dataMode": "params",
			"data": [
				{
					"key": "bank_id",
					"value": "1",
					"type": "text",
					"enabled": true
				},
				{
					"key": "username",
					"value": "adentya123",
					"type": "text",
					"enabled": true
				},
				{
					"key": "password",
					"value": "055125",
					"type": "text",
					"enabled": true
				},
				{
					"key": "account_number",
					"value": "1370011526643",
					"type": "text",
					"enabled": true
				}
			],
			"rawModeData": null,
			"descriptionFormat": "html",
			"description": "",
			"headers": "token: $2y$10$e902QnuQwX4mq4JUtaIpKOl.ovB6vakdewVp7VI6jLPWG7vWqkRkq\n",
			"method": "POST",
			"pathVariables": {},
			"url": "http://localhost:8000/api/bank/register",
			"preRequestScript": "",
			"tests": "",
			"currentHelper": "normal",
			"helperAttributes": {},
			"queryParams": null,
			"headerData": null,
			"pathVariableData": null,
			"collectionId": "b5631f8e-94eb-47a8-e328-9ee66952d8f3"
		},
		{
			"folder": null,
			"id": "bd6e8eaf-5d4f-d933-5f95-0bc793ced9c1",
			"name": "Bank Last History [BNI]",
			"dataMode": "params",
			"data": [],
			"rawModeData": null,
			"descriptionFormat": "html",
			"description": "",
			"headers": "token: $2y$10$oo7KeWiPEfU7bDtWhYJ8fOd8WeYI4idRSXAs4FnPqWS5gnpIa4TLe\n",
			"method": "GET",
			"pathVariables": {},
			"url": "http://localhost:8000/api/bank/transaction/last_history?secret_key=ce118a8a-6910-43bc-85a5-f27820a24c09&sort_type=date&order_by=desc&bank_account_id=4&limit=1&offset=1",
			"preRequestScript": "",
			"tests": "",
			"currentHelper": "normal",
			"helperAttributes": {},
			"queryParams": null,
			"headerData": null,
			"pathVariableData": null,
			"collectionId": "b5631f8e-94eb-47a8-e328-9ee66952d8f3"
		},
		{
			"folder": null,
			"id": "c46bb0b6-e83d-a8d3-7c8e-87769af88bd4",
			"name": "Bank Check History [BNI]",
			"dataMode": "params",
			"data": [],
			"rawModeData": null,
			"descriptionFormat": "html",
			"description": "",
			"headers": "token: $2y$10$YR2uMQtPcAR/kC7EzQUKCutMrjtFYPJQFAxz95tDhxTZmYcX.zeDu\n",
			"method": "GET",
			"pathVariables": {},
			"url": "http://localhost:8000/api/bank/transaction/history?secret_key=19952fad-6a6d-44e9-b8cc-92c3a3d79c7c&from=2016/05/01&to=2016/05/31&sort_type=date&order_by=asc",
			"preRequestScript": "",
			"tests": "",
			"currentHelper": "normal",
			"helperAttributes": {},
			"queryParams": null,
			"headerData": null,
			"pathVariableData": null,
			"collectionId": "b5631f8e-94eb-47a8-e328-9ee66952d8f3"
		},
		{
			"folder": null,
			"id": "cb2c59be-bb89-238e-4e9c-78d0df00f33c",
			"name": "User Check Token",
			"dataMode": "urlencoded",
			"data": [],
			"rawModeData": null,
			"descriptionFormat": "html",
			"description": "",
			"headers": "token: $2y$10$MGOiTA5S3QGh/HASLc5uVubHeSSHwcJ2s.IyitBDfJoA1jC5XzoNK\n",
			"method": "POST",
			"pathVariables": {},
			"url": "http://localhost:8000/api/user/check_token",
			"preRequestScript": "",
			"tests": "",
			"currentHelper": "normal",
			"helperAttributes": {},
			"queryParams": null,
			"headerData": null,
			"pathVariableData": null,
			"collectionId": "b5631f8e-94eb-47a8-e328-9ee66952d8f3"
		},
		{
			"folder": null,
			"id": "cb9b033a-76f0-bc03-bc02-8895a1bfdfa5",
			"name": "Bank Last History [Mandiri]",
			"dataMode": "params",
			"data": [],
			"rawModeData": null,
			"descriptionFormat": "html",
			"description": "",
			"headers": "token: $2y$10$8bnlF.lIjWi7AWj3zzAfcO..FfpTxQgHB8vprWKeLJ3/uuZPHwqp6\n",
			"method": "GET",
			"pathVariables": {},
			"url": "http://localhost:8000/api/bank/transaction/last_history?secret_key=ce118a8a-6910-43bc-85a5-f27820a24c09&sort_type=date&order_by=asc",
			"preRequestScript": "",
			"tests": "",
			"currentHelper": "normal",
			"helperAttributes": {},
			"queryParams": null,
			"headerData": null,
			"pathVariableData": null,
			"collectionId": "b5631f8e-94eb-47a8-e328-9ee66952d8f3"
		},
		{
			"folder": null,
			"id": "cca25c0a-8098-eaa2-40fc-14d5436725fd",
			"name": "Bank Login",
			"dataMode": "urlencoded",
			"data": [
				{
					"key": "secret_key",
					"value": "825dede7-9ada-4337-a78d-bd0d43bf8a2e",
					"type": "text",
					"enabled": true
				}
			],
			"rawModeData": null,
			"descriptionFormat": "html",
			"description": "",
			"headers": "token: $2y$10$foGaElNRO.pExrybzBCFMOqHAgH/Gg1.KgXCwQF1kpSw9NFPl/49G\n",
			"method": "POST",
			"pathVariables": {},
			"url": "http://localhost:8000/api/bank/login",
			"preRequestScript": "",
			"tests": "",
			"currentHelper": "normal",
			"helperAttributes": {},
			"queryParams": null,
			"headerData": null,
			"pathVariableData": null,
			"collectionId": "b5631f8e-94eb-47a8-e328-9ee66952d8f3"
		},
		{
			"folder": null,
			"id": "cdc003b9-6819-91c4-56db-5c34ee3d2593",
			"name": "Get Bank Accounts",
			"dataMode": "urlencoded",
			"data": [
				{
					"key": "secret_key",
					"value": "825dede7-9ada-4337-a78d-bd0d43bf8a2e",
					"type": "text",
					"enabled": true
				},
				{
					"key": "cashflow_id",
					"value": "12",
					"type": "text",
					"enabled": true
				},
				{
					"key": "status",
					"value": "read",
					"type": "text",
					"enabled": true
				}
			],
			"rawModeData": null,
			"descriptionFormat": "html",
			"description": "",
			"headers": "token: $2y$10$k./2h2kwYa.SGn7FeDbDaetzdpJh8mzJNE0gNvqgCjem/BmLnRjJ2\n",
			"method": "GET",
			"pathVariables": {},
			"url": "http://localhost:8000/api/bank/accounts",
			"preRequestScript": "",
			"tests": "",
			"currentHelper": "normal",
			"helperAttributes": {},
			"queryParams": null,
			"headerData": null,
			"pathVariableData": null,
			"collectionId": "b5631f8e-94eb-47a8-e328-9ee66952d8f3"
		},
		{
			"folder": null,
			"id": "d9ec6da6-bd48-231a-653f-c4ba7fc64133",
			"name": "Bank Logout",
			"dataMode": "params",
			"data": [],
			"rawModeData": null,
			"descriptionFormat": "html",
			"description": "",
			"headers": "token: $2y$10$Gf3/pYvaAa9TfOMCNLnQw.13BcGvqmvZHIlNzyuy2BdyRuuN0c5mC\n",
			"method": "GET",
			"pathVariables": {},
			"url": "http://localhost:8000/api/bank/logout?secret_key=dd13679a-ba6f-46d5-a581-f305416e24da",
			"preRequestScript": "",
			"tests": "",
			"currentHelper": "normal",
			"helperAttributes": {},
			"queryParams": null,
			"headerData": null,
			"pathVariableData": null,
			"collectionId": "b5631f8e-94eb-47a8-e328-9ee66952d8f3"
		},
		{
			"folder": null,
			"id": "eeb4f158-057b-3f40-af02-d042b881c6b9",
			"name": "Get Bank Balance Total",
			"dataMode": "params",
			"data": [],
			"rawModeData": null,
			"descriptionFormat": null,
			"description": "",
			"headers": "token: $2y$10$/CMV/Oh38/dX0iMTsehceOmnUSiczY2Cq9B2g9k3Cu.sMpxbk0vcS\n",
			"method": "GET",
			"pathVariables": {},
			"url": "http://localhost:8000/api/bank/balance/total",
			"preRequestScript": "",
			"tests": "",
			"currentHelper": "normal",
			"helperAttributes": {},
			"queryParams": null,
			"headerData": null,
			"pathVariableData": null,
			"collectionId": "b5631f8e-94eb-47a8-e328-9ee66952d8f3"
		},
		{
			"folder": null,
			"id": "f4aade88-11bf-174b-891c-987045d83cc0",
			"name": "Bank Balance [Mandiri]",
			"dataMode": "params",
			"data": [],
			"rawModeData": null,
			"descriptionFormat": "html",
			"description": "",
			"headers": "token: $2y$10$LoyxG1Agja2uAd0QlEWMXu5N1VpBVlsQf/tl.pMdU6.zRG/XtM8Fa\n",
			"method": "GET",
			"pathVariables": {},
			"url": "http://localhost:8000/api/bank/balance?secret_key=bf6c9e3d-aa44-4b56-bd16-4162b3d93494",
			"preRequestScript": "",
			"tests": "",
			"currentHelper": "normal",
			"helperAttributes": {},
			"queryParams": null,
			"headerData": null,
			"pathVariableData": null,
			"collectionId": "b5631f8e-94eb-47a8-e328-9ee66952d8f3"
		},
		{
			"folder": null,
			"id": "f588c7f0-ccac-30e9-f26d-064a327e27df",
			"name": "User Logout",
			"dataMode": "params",
			"data": [],
			"rawModeData": null,
			"descriptionFormat": null,
			"description": "",
			"headers": "token: $2y$10$I7Xgb3B5gjVB8O6TLlFH3.buVjYlkEpd3g/Q1TYfRwfv7PZAXmxz2\n",
			"method": "GET",
			"pathVariables": {},
			"url": "http://localhost:8000/api/user/logout",
			"preRequestScript": "",
			"tests": "",
			"currentHelper": "normal",
			"helperAttributes": {},
			"queryParams": null,
			"headerData": null,
			"pathVariableData": null,
			"collectionId": "b5631f8e-94eb-47a8-e328-9ee66952d8f3"
		}
	]
}